EESchema Schematic File Version 4
EELAYER 30 0
EELAYER END
$Descr A4 11693 8268
encoding utf-8
Sheet 1 1
Title ""
Date ""
Rev ""
Comp ""
Comment1 ""
Comment2 ""
Comment3 ""
Comment4 ""
$EndDescr
$Comp
L Connector_Generic:Conn_01x01 J1
U 1 1 60A69402
P 950 1250
F 0 "J1" H 868 1025 50  0000 C CNN
F 1 "PAD_BATT+" H 868 1116 50  0000 C CNN
F 2 "personal:PCB_as_AA_Battery" H 950 1250 50  0001 C CNN
F 3 "~" H 950 1250 50  0001 C CNN
	1    950  1250
	-1   0    0    1   
$EndComp
$Comp
L Connector_Generic:Conn_01x01 J3
U 1 1 60A6A1BA
P 950 1600
F 0 "J3" H 868 1375 50  0000 C CNN
F 1 "BATT-" H 868 1466 50  0000 C CNN
F 2 "Connector_PinHeader_2.54mm:PinHeader_1x01_P2.54mm_Vertical" H 950 1600 50  0001 C CNN
F 3 "~" H 950 1600 50  0001 C CNN
	1    950  1600
	-1   0    0    1   
$EndComp
$Comp
L power:-BATT #PWR08
U 1 1 60A6ACEB
P 1250 1700
F 0 "#PWR08" H 1250 1550 50  0001 C CNN
F 1 "-BATT" H 1265 1873 50  0000 C CNN
F 2 "" H 1250 1700 50  0001 C CNN
F 3 "" H 1250 1700 50  0001 C CNN
	1    1250 1700
	-1   0    0    1   
$EndComp
Wire Wire Line
	1250 1700 1250 1600
Wire Wire Line
	1250 1600 1150 1600
$Comp
L power:+BATT #PWR03
U 1 1 60A6B62B
P 1250 1150
F 0 "#PWR03" H 1250 1000 50  0001 C CNN
F 1 "+BATT" H 1265 1323 50  0000 C CNN
F 2 "" H 1250 1150 50  0001 C CNN
F 3 "" H 1250 1150 50  0001 C CNN
	1    1250 1150
	1    0    0    -1  
$EndComp
Wire Wire Line
	1150 1250 1250 1250
Wire Wire Line
	1250 1250 1250 1150
$Comp
L Connector_Generic:Conn_01x01 J2
U 1 1 60A944F7
P 1850 1250
F 0 "J2" H 1768 1025 50  0000 C CNN
F 1 "PAD_Wii+" H 1768 1116 50  0000 C CNN
F 2 "personal:PCB_as_AA_Battery" H 1850 1250 50  0001 C CNN
F 3 "~" H 1850 1250 50  0001 C CNN
	1    1850 1250
	-1   0    0    1   
$EndComp
Text GLabel 2050 1250 2    50   Input ~ 0
+Wii
Text Notes 550  750  0    118  ~ 0
Connectors and Pads
Text GLabel 1350 1600 2    50   Input ~ 0
-Wii
Wire Wire Line
	1350 1600 1250 1600
Connection ~ 1250 1600
Text Notes 3650 750  0    118  ~ 0
Voltage Regulator
$Comp
L Regulator_Linear:MIC5504-2.8YM5 U1
U 1 1 60A98177
P 4900 1250
F 0 "U1" H 4900 1617 50  0000 C CNN
F 1 "MIC5504-2.8YM5" H 4900 1526 50  0000 C CNN
F 2 "Package_TO_SOT_SMD:SOT-23-5" H 4900 850 50  0001 C CNN
F 3 "http://ww1.microchip.com/downloads/en/DeviceDoc/MIC550X.pdf" H 4650 1500 50  0001 C CNN
	1    4900 1250
	1    0    0    -1  
$EndComp
Text GLabel 6000 1150 2    50   Input ~ 0
+Wii
$Comp
L Switch:SW_Push_DPDT SW1
U 1 1 60A9F6B7
P 3150 1350
F 0 "SW1" H 3150 825 50  0000 C CNN
F 1 "SW_On/Off" H 3150 916 50  0000 C CNN
F 2 "personal:SW_DPDT_CK_JS202011JAQN" H 3150 1550 50  0001 C CNN
F 3 "~" H 3150 1550 50  0001 C CNN
	1    3150 1350
	-1   0    0    1   
$EndComp
Text GLabel 4500 1350 0    50   Input ~ 0
EN
Text GLabel 3650 1350 2    50   Input ~ 0
EN
$Comp
L Device:C_Small C1
U 1 1 60AA5109
P 4100 1350
F 0 "C1" H 4192 1396 50  0000 L CNN
F 1 "1uF" H 4192 1305 50  0000 L CNN
F 2 "Capacitor_SMD:C_0402_1005Metric" H 4100 1350 50  0001 C CNN
F 3 "~" H 4100 1350 50  0001 C CNN
	1    4100 1350
	1    0    0    -1  
$EndComp
$Comp
L Device:C_Small C2
U 1 1 60AA592A
P 5400 1350
F 0 "C2" H 5308 1304 50  0000 R CNN
F 1 "1uF" H 5308 1395 50  0000 R CNN
F 2 "Capacitor_SMD:C_0402_1005Metric" H 5400 1350 50  0001 C CNN
F 3 "~" H 5400 1350 50  0001 C CNN
	1    5400 1350
	-1   0    0    1   
$EndComp
Wire Wire Line
	4100 1150 4100 1050
Wire Wire Line
	4100 1150 4500 1150
Wire Wire Line
	4100 1150 4100 1250
Connection ~ 4100 1150
Wire Wire Line
	5300 1150 5400 1150
Wire Wire Line
	5400 1250 5400 1150
Connection ~ 5400 1150
Wire Wire Line
	4100 1450 4100 1650
Wire Wire Line
	4900 1550 4900 1650
Wire Wire Line
	5400 1450 5400 1650
Wire Wire Line
	3350 1150 3400 1150
Wire Wire Line
	3400 1150 3400 1350
Wire Wire Line
	3350 1550 3400 1550
Wire Wire Line
	3400 1550 3400 1350
Connection ~ 3400 1350
Wire Wire Line
	3650 1350 3600 1350
Wire Wire Line
	2950 1050 2800 1050
Wire Wire Line
	2800 1050 2800 900 
Wire Wire Line
	2800 1050 2800 1450
Wire Wire Line
	2800 1450 2950 1450
Connection ~ 2800 1050
Wire Wire Line
	2950 1650 2850 1650
Wire Wire Line
	2850 1650 2850 1750
Wire Wire Line
	2950 1250 2850 1250
Wire Wire Line
	2850 1250 2850 1650
Connection ~ 2850 1650
Text GLabel 5400 1650 3    50   Input ~ 0
-Wii
Text GLabel 5800 1650 3    50   Input ~ 0
-Wii
Wire Notes Line
	500  2000 6450 2000
Text Notes 7500 750  0    118  ~ 0
Charger and Voltage Selector
$Comp
L Personal_Kicad:MAX1555 U2
U 1 1 60ABBB37
P 7850 1650
F 0 "U2" H 7850 2065 50  0000 C CNN
F 1 "MAX1555" H 7850 1974 50  0000 C CNN
F 2 "Package_TO_SOT_SMD:SOT-23-5" H 7850 1650 118 0001 C CNN
F 3 "" H 7850 1650 118 0001 C CNN
	1    7850 1650
	1    0    0    -1  
$EndComp
$Comp
L Device:C_Small C5
U 1 1 60ABCDF5
P 7350 1850
F 0 "C5" H 7442 1896 50  0000 L CNN
F 1 "1uF" H 7442 1805 50  0000 L CNN
F 2 "Capacitor_SMD:C_0402_1005Metric" H 7350 1850 50  0001 C CNN
F 3 "~" H 7350 1850 50  0001 C CNN
	1    7350 1850
	1    0    0    -1  
$EndComp
$Comp
L Device:C_Small C4
U 1 1 60ABD931
P 6900 1850
F 0 "C4" H 6992 1896 50  0000 L CNN
F 1 "1uF" H 6992 1805 50  0000 L CNN
F 2 "Capacitor_SMD:C_0402_1005Metric" H 6900 1850 50  0001 C CNN
F 3 "~" H 6900 1850 50  0001 C CNN
	1    6900 1850
	1    0    0    -1  
$EndComp
Wire Wire Line
	6900 1500 6900 1750
Wire Wire Line
	7450 1650 7350 1650
Wire Wire Line
	7350 1650 7350 1750
$Comp
L power:-BATT #PWR013
U 1 1 60ABE7B8
P 8000 2000
F 0 "#PWR013" H 8000 1850 50  0001 C CNN
F 1 "-BATT" H 8015 2173 50  0000 C CNN
F 2 "" H 8000 2000 50  0001 C CNN
F 3 "" H 8000 2000 50  0001 C CNN
	1    8000 2000
	-1   0    0    1   
$EndComp
Wire Wire Line
	6900 1950 6900 2000
Wire Wire Line
	7350 1950 7350 2000
$Comp
L power:GND #PWR012
U 1 1 60AC0D62
P 7700 2000
F 0 "#PWR012" H 7700 1750 50  0001 C CNN
F 1 "GND" H 7705 1827 50  0000 C CNN
F 2 "" H 7700 2000 50  0001 C CNN
F 3 "" H 7700 2000 50  0001 C CNN
	1    7700 2000
	1    0    0    -1  
$EndComp
Wire Wire Line
	7850 1900 7850 1950
Wire Wire Line
	7850 1950 7700 1950
Wire Wire Line
	7700 1950 7700 2000
Wire Wire Line
	7850 1950 8000 1950
Wire Wire Line
	8000 1950 8000 2000
Connection ~ 7850 1950
$Comp
L power:GND #PWR011
U 1 1 60AC215F
P 7350 2000
F 0 "#PWR011" H 7350 1750 50  0001 C CNN
F 1 "GND" H 7355 1827 50  0000 C CNN
F 2 "" H 7350 2000 50  0001 C CNN
F 3 "" H 7350 2000 50  0001 C CNN
	1    7350 2000
	1    0    0    -1  
$EndComp
$Comp
L power:GND #PWR010
U 1 1 60AC22B7
P 6900 2000
F 0 "#PWR010" H 6900 1750 50  0001 C CNN
F 1 "GND" H 6905 1827 50  0000 C CNN
F 2 "" H 6900 2000 50  0001 C CNN
F 3 "" H 6900 2000 50  0001 C CNN
	1    6900 2000
	1    0    0    -1  
$EndComp
$Comp
L power:+BATT #PWR04
U 1 1 60AC23CB
P 8350 1400
F 0 "#PWR04" H 8350 1250 50  0001 C CNN
F 1 "+BATT" H 8365 1573 50  0000 C CNN
F 2 "" H 8350 1400 50  0001 C CNN
F 3 "" H 8350 1400 50  0001 C CNN
	1    8350 1400
	1    0    0    -1  
$EndComp
Wire Wire Line
	8350 1400 8350 1500
Wire Wire Line
	8350 1500 8250 1500
$Comp
L Device:C_Small C3
U 1 1 60AC5629
P 8950 1700
F 0 "C3" H 9042 1746 50  0000 L CNN
F 1 "1uF" H 9042 1655 50  0000 L CNN
F 2 "Capacitor_SMD:C_0402_1005Metric" H 8950 1700 50  0001 C CNN
F 3 "~" H 8950 1700 50  0001 C CNN
	1    8950 1700
	1    0    0    -1  
$EndComp
$Comp
L Device:R_Small R1
U 1 1 60AC6290
P 5800 1300
F 0 "R1" H 5859 1346 50  0000 L CNN
F 1 "200R" H 5859 1255 50  0000 L CNN
F 2 "Resistor_SMD:R_0402_1005Metric" H 5800 1300 50  0001 C CNN
F 3 "~" H 5800 1300 50  0001 C CNN
	1    5800 1300
	1    0    0    -1  
$EndComp
Wire Wire Line
	5400 1150 5800 1150
Wire Wire Line
	5800 1200 5800 1150
Connection ~ 5800 1150
Wire Wire Line
	5800 1150 6000 1150
Wire Wire Line
	5800 1450 5800 1400
$Comp
L Device:LED_Small D3
U 1 1 60AC9A60
P 10750 1750
F 0 "D3" V 10796 1680 50  0000 R CNN
F 1 "red" V 10705 1680 50  0000 R CNN
F 2 "LED_SMD:LED_0603_1608Metric" V 10750 1750 50  0001 C CNN
F 3 "~" V 10750 1750 50  0001 C CNN
	1    10750 1750
	0    -1   -1   0   
$EndComp
$Comp
L Device:R_Small R3
U 1 1 60AC9A66
P 10750 1500
F 0 "R3" H 10809 1546 50  0000 L CNN
F 1 "1k" H 10809 1455 50  0000 L CNN
F 2 "Resistor_SMD:R_0402_1005Metric" H 10750 1500 50  0001 C CNN
F 3 "~" H 10750 1500 50  0001 C CNN
	1    10750 1500
	1    0    0    -1  
$EndComp
Wire Wire Line
	10750 1650 10750 1600
$Comp
L power:VDD #PWR02
U 1 1 60ACB956
P 4100 1050
F 0 "#PWR02" H 4100 900 50  0001 C CNN
F 1 "VDD" H 4115 1223 50  0000 C CNN
F 2 "" H 4100 1050 50  0001 C CNN
F 3 "" H 4100 1050 50  0001 C CNN
	1    4100 1050
	1    0    0    -1  
$EndComp
$Comp
L power:VDD #PWR01
U 1 1 60ACC127
P 2800 900
F 0 "#PWR01" H 2800 750 50  0001 C CNN
F 1 "VDD" H 2815 1073 50  0000 C CNN
F 2 "" H 2800 900 50  0001 C CNN
F 3 "" H 2800 900 50  0001 C CNN
	1    2800 900 
	1    0    0    -1  
$EndComp
$Comp
L power:GND #PWR06
U 1 1 60ACC72C
P 4100 1650
F 0 "#PWR06" H 4100 1400 50  0001 C CNN
F 1 "GND" H 4105 1477 50  0000 C CNN
F 2 "" H 4100 1650 50  0001 C CNN
F 3 "" H 4100 1650 50  0001 C CNN
	1    4100 1650
	1    0    0    -1  
$EndComp
$Comp
L power:GND #PWR07
U 1 1 60ACD00F
P 4900 1650
F 0 "#PWR07" H 4900 1400 50  0001 C CNN
F 1 "GND" H 4905 1477 50  0000 C CNN
F 2 "" H 4900 1650 50  0001 C CNN
F 3 "" H 4900 1650 50  0001 C CNN
	1    4900 1650
	1    0    0    -1  
$EndComp
$Comp
L power:GND #PWR09
U 1 1 60ACD245
P 2850 1750
F 0 "#PWR09" H 2850 1500 50  0001 C CNN
F 1 "GND" H 2855 1577 50  0000 C CNN
F 2 "" H 2850 1750 50  0001 C CNN
F 3 "" H 2850 1750 50  0001 C CNN
	1    2850 1750
	1    0    0    -1  
$EndComp
Text GLabel 7000 850  1    50   Input ~ 0
VUSB
$Comp
L Diode:1N5817 D1
U 1 1 60AD3CB9
P 9950 1300
F 0 "D1" V 9996 1220 50  0000 R CNN
F 1 "1N5817" V 9905 1220 50  0000 R CNN
F 2 "Diode_SMD:D_SOD-323" H 9950 1125 50  0001 C CNN
F 3 "http://www.vishay.com/docs/88525/1n5817.pdf" H 9950 1300 50  0001 C CNN
	1    9950 1300
	0    -1   -1   0   
$EndComp
$Comp
L Transistor_FET:IRLML6401 Q1
U 1 1 60AD4EE7
P 9600 1400
F 0 "Q1" V 9849 1400 50  0000 C CNN
F 1 "IRLML6401" V 9940 1400 50  0000 C CNN
F 2 "Package_TO_SOT_SMD:SOT-23" H 9800 1325 50  0001 L CIN
F 3 "https://www.infineon.com/dgdl/irlml6401pbf.pdf?fileId=5546d462533600a401535668b96d2634" H 9600 1400 50  0001 L CNN
	1    9600 1400
	0    -1   1    0   
$EndComp
Wire Wire Line
	8350 1500 8950 1500
Wire Wire Line
	8950 1500 8950 1600
Connection ~ 8350 1500
$Comp
L power:-BATT #PWR014
U 1 1 60AD6F43
P 8950 2000
F 0 "#PWR014" H 8950 1850 50  0001 C CNN
F 1 "-BATT" H 8965 2173 50  0000 C CNN
F 2 "" H 8950 2000 50  0001 C CNN
F 3 "" H 8950 2000 50  0001 C CNN
	1    8950 2000
	-1   0    0    1   
$EndComp
Wire Wire Line
	8950 2000 8950 1800
Text GLabel 9600 1000 1    50   Input ~ 0
VUSB
Wire Wire Line
	9400 1500 8950 1500
Connection ~ 8950 1500
Wire Wire Line
	9600 1000 9600 1100
Wire Wire Line
	9950 1150 9950 1100
Wire Wire Line
	9950 1100 9600 1100
Connection ~ 9600 1100
Wire Wire Line
	9600 1100 9600 1200
Wire Wire Line
	9800 1500 9950 1500
Wire Wire Line
	9950 1500 9950 1450
$Comp
L power:VDD #PWR05
U 1 1 60AE27BA
P 10200 1500
F 0 "#PWR05" H 10200 1350 50  0001 C CNN
F 1 "VDD" V 10215 1628 50  0000 L CNN
F 2 "" H 10200 1500 50  0001 C CNN
F 3 "" H 10200 1500 50  0001 C CNN
	1    10200 1500
	0    1    1    0   
$EndComp
Text GLabel 10750 1350 1    50   Input ~ 0
VUSB
Wire Wire Line
	10750 1350 10750 1400
Text GLabel 8250 1650 2    50   Input ~ 0
~CHG
Wire Wire Line
	10750 1900 10750 1850
Wire Wire Line
	10200 1500 9950 1500
Connection ~ 9950 1500
Wire Notes Line
	11200 2350 6450 2350
Text Notes 3650 2400 0    118  ~ 0
Voltage Regulator\nBackup
$Comp
L Regulator_Linear:MIC5504-2.8YM5 U3
U 1 1 60AF1449
P 3750 2950
F 0 "U3" H 3750 3317 50  0000 C CNN
F 1 "MIC5504-2.8YM5" H 3750 3226 50  0000 C CNN
F 2 "Package_TO_SOT_SMD:SOT-23-5" H 3750 2550 50  0001 C CNN
F 3 "http://ww1.microchip.com/downloads/en/DeviceDoc/MIC550X.pdf" H 3500 3200 50  0001 C CNN
	1    3750 2950
	1    0    0    -1  
$EndComp
Text GLabel 3350 3050 0    50   Input ~ 0
EN
$Comp
L Device:C_Small C6
U 1 1 60AF1450
P 2950 3050
F 0 "C6" H 3042 3096 50  0000 L CNN
F 1 "1uF" H 3042 3005 50  0000 L CNN
F 2 "Capacitor_SMD:C_0402_1005Metric" H 2950 3050 50  0001 C CNN
F 3 "~" H 2950 3050 50  0001 C CNN
	1    2950 3050
	1    0    0    -1  
$EndComp
$Comp
L Device:C_Small C7
U 1 1 60AF1456
P 4250 3050
F 0 "C7" H 4158 3004 50  0000 R CNN
F 1 "1uF" H 4158 3095 50  0000 R CNN
F 2 "Capacitor_SMD:C_0402_1005Metric" H 4250 3050 50  0001 C CNN
F 3 "~" H 4250 3050 50  0001 C CNN
	1    4250 3050
	-1   0    0    1   
$EndComp
Wire Wire Line
	2950 2850 2950 2750
Wire Wire Line
	2950 2850 3350 2850
Wire Wire Line
	2950 2850 2950 2950
Connection ~ 2950 2850
Wire Wire Line
	4150 2850 4250 2850
Wire Wire Line
	4250 2950 4250 2850
Connection ~ 4250 2850
Wire Wire Line
	2950 3150 2950 3350
Wire Wire Line
	3750 3250 3750 3350
Wire Wire Line
	4250 3150 4250 3350
Text GLabel 4250 3350 3    50   Input ~ 0
-Wii
Wire Wire Line
	4250 2850 4650 2850
$Comp
L power:VDD #PWR015
U 1 1 60AF1468
P 2950 2750
F 0 "#PWR015" H 2950 2600 50  0001 C CNN
F 1 "VDD" H 2965 2923 50  0000 C CNN
F 2 "" H 2950 2750 50  0001 C CNN
F 3 "" H 2950 2750 50  0001 C CNN
	1    2950 2750
	1    0    0    -1  
$EndComp
$Comp
L power:GND #PWR016
U 1 1 60AF146E
P 2950 3350
F 0 "#PWR016" H 2950 3100 50  0001 C CNN
F 1 "GND" H 2955 3177 50  0000 C CNN
F 2 "" H 2950 3350 50  0001 C CNN
F 3 "" H 2950 3350 50  0001 C CNN
	1    2950 3350
	1    0    0    -1  
$EndComp
$Comp
L power:GND #PWR017
U 1 1 60AF1474
P 3750 3350
F 0 "#PWR017" H 3750 3100 50  0001 C CNN
F 1 "GND" H 3755 3177 50  0000 C CNN
F 2 "" H 3750 3350 50  0001 C CNN
F 3 "" H 3750 3350 50  0001 C CNN
	1    3750 3350
	1    0    0    -1  
$EndComp
Text GLabel 4650 2850 2    50   Input ~ 0
+Wii
Text Notes 4950 3400 0    50   Italic 0
Note:\nIn case Wiimote draws more than \n300ma i.e. when using vibration \n(rumble) motor, this footprint \nallows to add a second voltage \nregulator in parallel. \nThis is not the cleanest method \nas there is no matching circuitry \nat all.\nUsed regulators may age\nsignificantly faster.\nUSE AT OWN RISK! 
Wire Notes Line
	6450 3700 2600 3700
Wire Notes Line
	2600 500  2600 3700
Text Notes 8500 2600 0    118  ~ 0
USB
$Comp
L Connector:USB_C_Receptacle_USB2.0 J4
U 1 1 60AF70FA
P 7500 3650
F 0 "J4" H 7607 4517 50  0000 C CNN
F 1 "USB_C_Receptacle_USB2.0" H 7607 4426 50  0000 C CNN
F 2 "personal:USB_C_Receptacle_JAE_DX07S016JA1R1500" H 7650 3650 50  0001 C CNN
F 3 "https://www.usb.org/sites/default/files/documents/usb_type-c.zip" H 7650 3650 50  0001 C CNN
	1    7500 3650
	1    0    0    -1  
$EndComp
Text GLabel 8100 3050 2    50   Input ~ 0
VUSB
Text GLabel 8100 3250 2    50   Input ~ 0
USB_CC1
Text GLabel 8100 3350 2    50   Input ~ 0
USB_CC2
NoConn ~ 8100 4150
NoConn ~ 8100 4250
$Comp
L power:GND #PWR022
U 1 1 60B064A4
P 7200 4950
F 0 "#PWR022" H 7200 4700 50  0001 C CNN
F 1 "GND" H 7205 4777 50  0000 C CNN
F 2 "" H 7200 4950 50  0001 C CNN
F 3 "" H 7200 4950 50  0001 C CNN
	1    7200 4950
	1    0    0    -1  
$EndComp
$Comp
L power:GND #PWR023
U 1 1 60B068BA
P 7500 4650
F 0 "#PWR023" H 7500 4400 50  0001 C CNN
F 1 "GND" H 7505 4477 50  0000 C CNN
F 2 "" H 7500 4650 50  0001 C CNN
F 3 "" H 7500 4650 50  0001 C CNN
	1    7500 4650
	1    0    0    -1  
$EndComp
Wire Wire Line
	7500 4650 7500 4550
Text GLabel 9150 3550 1    50   Input ~ 0
USB_CC1
Text GLabel 9400 3550 1    50   Input ~ 0
USB_CC2
$Comp
L Device:R_Small R8
U 1 1 60B0C3E3
P 9400 3750
F 0 "R8" H 9459 3796 50  0000 L CNN
F 1 "5k1" H 9459 3705 50  0000 L CNN
F 2 "Resistor_SMD:R_0402_1005Metric" H 9400 3750 50  0001 C CNN
F 3 "~" H 9400 3750 50  0001 C CNN
	1    9400 3750
	1    0    0    -1  
$EndComp
$Comp
L Device:R_Small R7
U 1 1 60B0C68E
P 9150 3750
F 0 "R7" H 9209 3796 50  0000 L CNN
F 1 "5k1" H 9209 3705 50  0000 L CNN
F 2 "Resistor_SMD:R_0402_1005Metric" H 9150 3750 50  0001 C CNN
F 3 "~" H 9150 3750 50  0001 C CNN
	1    9150 3750
	1    0    0    -1  
$EndComp
$Comp
L power:GND #PWR020
U 1 1 60B0C82F
P 9150 3950
F 0 "#PWR020" H 9150 3700 50  0001 C CNN
F 1 "GND" H 9155 3777 50  0000 C CNN
F 2 "" H 9150 3950 50  0001 C CNN
F 3 "" H 9150 3950 50  0001 C CNN
	1    9150 3950
	1    0    0    -1  
$EndComp
$Comp
L power:GND #PWR021
U 1 1 60B0CB37
P 9400 3950
F 0 "#PWR021" H 9400 3700 50  0001 C CNN
F 1 "GND" H 9405 3777 50  0000 C CNN
F 2 "" H 9400 3950 50  0001 C CNN
F 3 "" H 9400 3950 50  0001 C CNN
	1    9400 3950
	1    0    0    -1  
$EndComp
Wire Wire Line
	9400 3550 9400 3650
Wire Wire Line
	9400 3850 9400 3950
Wire Wire Line
	9150 3950 9150 3850
Wire Wire Line
	9150 3650 9150 3550
Wire Notes Line
	11200 5250 6450 5250
Wire Notes Line
	6450 500  6450 5250
Text GLabel 8550 3600 2    50   Input ~ 0
USB_D-
Text GLabel 8550 3800 2    50   Input ~ 0
USB_D+
Wire Wire Line
	8100 3550 8150 3550
Wire Wire Line
	8150 3550 8150 3600
Wire Wire Line
	8150 3650 8100 3650
Wire Wire Line
	8150 3600 8250 3600
Connection ~ 8150 3600
Wire Wire Line
	8150 3600 8150 3650
Wire Wire Line
	8100 3750 8150 3750
Wire Wire Line
	8150 3750 8150 3800
Wire Wire Line
	8150 3850 8100 3850
Wire Wire Line
	8150 3800 8250 3800
Connection ~ 8150 3800
Wire Wire Line
	8150 3800 8150 3850
Text GLabel 10350 3200 0    50   Input ~ 0
USB_D-
$Comp
L Device:R_Small R5
U 1 1 60B222BD
P 10450 3400
F 0 "R5" H 10509 3446 50  0000 L CNN
F 1 "backup" H 10509 3355 50  0000 L CNN
F 2 "Resistor_SMD:R_0402_1005Metric_Pad0.72x0.64mm_HandSolder" H 10450 3400 50  0001 C CNN
F 3 "~" H 10450 3400 50  0001 C CNN
	1    10450 3400
	1    0    0    -1  
$EndComp
$Comp
L Device:R_Small R4
U 1 1 60B225FF
P 10450 3000
F 0 "R4" H 10509 3046 50  0000 L CNN
F 1 "backup" H 10509 2955 50  0000 L CNN
F 2 "Resistor_SMD:R_0402_1005Metric_Pad0.72x0.64mm_HandSolder" H 10450 3000 50  0001 C CNN
F 3 "~" H 10450 3000 50  0001 C CNN
	1    10450 3000
	1    0    0    -1  
$EndComp
Wire Wire Line
	10450 3100 10450 3200
Wire Wire Line
	10350 3200 10450 3200
Connection ~ 10450 3200
Wire Wire Line
	10450 3200 10450 3300
Text GLabel 10350 4450 0    50   Input ~ 0
USB_D+
$Comp
L Device:R_Small R12
U 1 1 60B26D25
P 10450 4650
F 0 "R12" H 10509 4696 50  0000 L CNN
F 1 "backup" H 10509 4605 50  0000 L CNN
F 2 "Resistor_SMD:R_0402_1005Metric_Pad0.72x0.64mm_HandSolder" H 10450 4650 50  0001 C CNN
F 3 "~" H 10450 4650 50  0001 C CNN
	1    10450 4650
	1    0    0    -1  
$EndComp
$Comp
L Device:R_Small R9
U 1 1 60B26D2B
P 10450 4250
F 0 "R9" H 10509 4296 50  0000 L CNN
F 1 "backup" H 10509 4205 50  0000 L CNN
F 2 "Resistor_SMD:R_0402_1005Metric_Pad0.72x0.64mm_HandSolder" H 10450 4250 50  0001 C CNN
F 3 "~" H 10450 4250 50  0001 C CNN
	1    10450 4250
	1    0    0    -1  
$EndComp
Wire Wire Line
	10450 4350 10450 4450
Wire Wire Line
	10350 4450 10450 4450
Connection ~ 10450 4450
Wire Wire Line
	10450 4450 10450 4550
$Comp
L Device:R_Small R6
U 1 1 60B2AC42
P 8250 3700
F 0 "R6" H 8309 3746 50  0000 L CNN
F 1 "backup" H 8309 3655 50  0000 L CNN
F 2 "Resistor_SMD:R_0402_1005Metric_Pad0.72x0.64mm_HandSolder" H 8250 3700 50  0001 C CNN
F 3 "~" H 8250 3700 50  0001 C CNN
	1    8250 3700
	1    0    0    -1  
$EndComp
Wire Wire Line
	8250 3600 8550 3600
Connection ~ 8250 3600
Wire Wire Line
	8550 3800 8250 3800
Connection ~ 8250 3800
$Comp
L power:GND #PWR018
U 1 1 60B2F3BD
P 10450 3550
F 0 "#PWR018" H 10450 3300 50  0001 C CNN
F 1 "GND" H 10455 3377 50  0000 C CNN
F 2 "" H 10450 3550 50  0001 C CNN
F 3 "" H 10450 3550 50  0001 C CNN
	1    10450 3550
	1    0    0    -1  
$EndComp
Wire Wire Line
	10450 3550 10450 3500
$Comp
L power:GND #PWR024
U 1 1 60B31A70
P 10450 4800
F 0 "#PWR024" H 10450 4550 50  0001 C CNN
F 1 "GND" H 10455 4627 50  0000 C CNN
F 2 "" H 10450 4800 50  0001 C CNN
F 3 "" H 10450 4800 50  0001 C CNN
	1    10450 4800
	1    0    0    -1  
$EndComp
Wire Wire Line
	10450 4800 10450 4750
Text GLabel 10450 2850 1    50   Input ~ 0
VUSB
Text GLabel 10450 4100 1    50   Input ~ 0
VUSB
Wire Wire Line
	10450 2900 10450 2850
Wire Wire Line
	10450 4150 10450 4100
$Comp
L Jumper:SolderJumper_3_Open JP1
U 1 1 60B3C185
P 7000 1000
F 0 "JP1" H 7000 1113 50  0000 C CNN
F 1 "jumper" H 7000 1204 50  0000 C CNN
F 2 "Jumper:SolderJumper-3_P1.3mm_Open_RoundedPad1.0x1.5mm" H 7000 1000 50  0001 C CNN
F 3 "~" H 7000 1000 50  0001 C CNN
	1    7000 1000
	-1   0    0    1   
$EndComp
Text GLabel 7250 1650 0    50   Input ~ 0
DC_IN
Wire Wire Line
	7250 1650 7350 1650
Connection ~ 7350 1650
Wire Wire Line
	6800 1500 6900 1500
Text GLabel 6800 1500 0    50   Input ~ 0
USB_IN
Connection ~ 6900 1500
Wire Wire Line
	6900 1500 7450 1500
Text Notes 7500 1100 0    50   Italic 0
Note:\nUSB_IN -> 100mA charge current\nDC_IN -> 280mA charge current
Text GLabel 6800 1000 0    50   Input ~ 0
USB_IN
Text GLabel 7200 1000 2    50   Input ~ 0
DC_IN
Text GLabel 10750 1900 3    50   Input ~ 0
~CHG
$Comp
L Device:LED_Small D4
U 1 1 60AD1D11
P 4300 5300
F 0 "D4" H 4300 5535 50  0000 C CNN
F 1 "green" H 4300 5444 50  0000 C CNN
F 2 "LED_SMD:LED_0603_1608Metric" V 4300 5300 50  0001 C CNN
F 3 "~" V 4300 5300 50  0001 C CNN
	1    4300 5300
	1    0    0    -1  
$EndComp
$Comp
L Device:LED_Small D5
U 1 1 60AD2A5E
P 4300 5800
F 0 "D5" H 4300 6035 50  0000 C CNN
F 1 "yellow" H 4300 5944 50  0000 C CNN
F 2 "LED_SMD:LED_0603_1608Metric" V 4300 5800 50  0001 C CNN
F 3 "~" V 4300 5800 50  0001 C CNN
	1    4300 5800
	1    0    0    -1  
$EndComp
$Comp
L Device:LED_Small D8
U 1 1 60AD2EE2
P 4300 6800
F 0 "D8" H 4300 7035 50  0000 C CNN
F 1 "red" H 4300 6944 50  0000 C CNN
F 2 "LED_SMD:LED_0603_1608Metric" V 4300 6800 50  0001 C CNN
F 3 "~" V 4300 6800 50  0001 C CNN
	1    4300 6800
	1    0    0    -1  
$EndComp
$Comp
L Device:LED_Small D6
U 1 1 60AD3154
P 1800 6050
F 0 "D6" V 1846 5980 50  0000 R CNN
F 1 "red" V 1755 5980 50  0000 R CNN
F 2 "LED_SMD:LED_0603_1608Metric" V 1800 6050 50  0001 C CNN
F 3 "~" V 1800 6050 50  0001 C CNN
	1    1800 6050
	0    -1   -1   0   
$EndComp
Wire Wire Line
	4100 5300 4200 5300
Wire Wire Line
	4100 5800 4200 5800
Wire Wire Line
	4200 6300 4100 6300
Wire Wire Line
	4100 6800 4200 6800
$Comp
L Personal_Kicad:LM339QT U4
U 1 1 60AD8944
P 3650 6050
F 0 "U4" H 3850 4850 50  0000 C CNN
F 1 "LM339QT" H 3850 7250 50  0000 C CNN
F 2 "Package_DFN_QFN:QFN-16-1EP_3x3mm_P0.5mm_EP1.7x1.7mm" H 3650 6050 50  0001 C CNN
F 3 "" H 3650 6050 50  0001 C CNN
	1    3650 6050
	1    0    0    -1  
$EndComp
$Comp
L Device:LED_Small D7
U 1 1 60AD2CA0
P 4300 6300
F 0 "D7" H 4300 6535 50  0000 C CNN
F 1 "yellow" H 4300 6444 50  0000 C CNN
F 2 "LED_SMD:LED_0603_1608Metric" V 4300 6300 50  0001 C CNN
F 3 "~" V 4300 6300 50  0001 C CNN
	1    4300 6300
	1    0    0    -1  
$EndComp
$Comp
L Switch:SW_Push SW2
U 1 1 60AF4B7F
P 1800 4250
F 0 "SW2" V 1846 4202 50  0000 R CNN
F 1 "SW_Push" V 1755 4202 50  0000 R CNN
F 2 "Button_Switch_THT:SW_PUSH_6mm" H 1800 4450 50  0001 C CNN
F 3 "~" H 1800 4450 50  0001 C CNN
	1    1800 4250
	0    -1   -1   0   
$EndComp
$Comp
L power:+BATT #PWR019
U 1 1 60AF59A7
P 1800 3950
F 0 "#PWR019" H 1800 3800 50  0001 C CNN
F 1 "+BATT" H 1815 4123 50  0000 C CNN
F 2 "" H 1800 3950 50  0001 C CNN
F 3 "" H 1800 3950 50  0001 C CNN
	1    1800 3950
	1    0    0    -1  
$EndComp
Wire Wire Line
	1800 3950 1800 4050
$Comp
L power:-BATT #PWR028
U 1 1 60AF8D53
P 3650 7450
F 0 "#PWR028" H 3650 7300 50  0001 C CNN
F 1 "-BATT" H 3665 7623 50  0000 C CNN
F 2 "" H 3650 7450 50  0001 C CNN
F 3 "" H 3650 7450 50  0001 C CNN
	1    3650 7450
	-1   0    0    1   
$EndComp
Wire Wire Line
	3650 7450 3650 7400
$Comp
L Device:R_Small R11
U 1 1 60B030E1
P 2800 4650
F 0 "R11" H 2859 4696 50  0000 L CNN
F 1 "15k" H 2859 4605 50  0000 L CNN
F 2 "Resistor_SMD:R_0402_1005Metric" H 2800 4650 50  0001 C CNN
F 3 "~" H 2800 4650 50  0001 C CNN
	1    2800 4650
	1    0    0    -1  
$EndComp
Wire Wire Line
	1800 4450 1800 4500
Wire Wire Line
	3650 4500 3650 4700
Wire Wire Line
	2800 4550 2800 4500
Connection ~ 2800 4500
Wire Wire Line
	2800 4500 3650 4500
Text GLabel 2900 4850 2    50   Input ~ 0
REF
Wire Wire Line
	2800 4750 2800 4850
Wire Wire Line
	2800 4850 2900 4850
Text GLabel 2900 7100 2    50   Input ~ 0
REF
$Comp
L power:-BATT #PWR027
U 1 1 60B0DD2C
P 2800 7450
F 0 "#PWR027" H 2800 7300 50  0001 C CNN
F 1 "-BATT" H 2815 7623 50  0000 C CNN
F 2 "" H 2800 7450 50  0001 C CNN
F 3 "" H 2800 7450 50  0001 C CNN
	1    2800 7450
	-1   0    0    1   
$EndComp
Wire Wire Line
	2800 7100 2900 7100
$Comp
L Device:R_Small R22
U 1 1 60B1223E
P 2800 7300
F 0 "R22" H 2859 7346 50  0000 L CNN
F 1 "11k" H 2859 7255 50  0000 L CNN
F 2 "Resistor_SMD:R_0402_1005Metric" H 2800 7300 50  0001 C CNN
F 3 "~" H 2800 7300 50  0001 C CNN
	1    2800 7300
	1    0    0    -1  
$EndComp
Wire Wire Line
	2800 7400 2800 7450
Wire Wire Line
	2800 7100 2800 7200
Text GLabel 3250 6700 0    50   Input ~ 0
REF
Text GLabel 3250 6200 0    50   Input ~ 0
REF
Text GLabel 3250 5700 0    50   Input ~ 0
REF
Text GLabel 3250 5200 0    50   Input ~ 0
REF
$Comp
L Device:R_Small R10
U 1 1 60B20753
P 1800 4650
F 0 "R10" H 1859 4696 50  0000 L CNN
F 1 "200R" H 1859 4605 50  0000 L CNN
F 2 "Resistor_SMD:R_0402_1005Metric" H 1800 4650 50  0001 C CNN
F 3 "~" H 1800 4650 50  0001 C CNN
	1    1800 4650
	1    0    0    -1  
$EndComp
Wire Wire Line
	1800 5950 1800 4900
Wire Wire Line
	1800 4550 1800 4500
Connection ~ 1800 4500
$Comp
L power:-BATT #PWR025
U 1 1 60B294C8
P 1800 7450
F 0 "#PWR025" H 1800 7300 50  0001 C CNN
F 1 "-BATT" H 1815 7623 50  0000 C CNN
F 2 "" H 1800 7450 50  0001 C CNN
F 3 "" H 1800 7450 50  0001 C CNN
	1    1800 7450
	-1   0    0    1   
$EndComp
Wire Wire Line
	1800 7450 1800 6150
$Comp
L Device:R_Small R15
U 1 1 60B2D515
P 2300 5650
F 0 "R15" H 2359 5696 50  0000 L CNN
F 1 "1k" H 2359 5605 50  0000 L CNN
F 2 "Resistor_SMD:R_0402_1005Metric" H 2300 5650 50  0001 C CNN
F 3 "~" H 2300 5650 50  0001 C CNN
	1    2300 5650
	1    0    0    -1  
$EndComp
$Comp
L Device:R_Small R13
U 1 1 60B2DDBF
P 2300 5150
F 0 "R13" H 2359 5196 50  0000 L CNN
F 1 "4k7" H 2359 5105 50  0000 L CNN
F 2 "Resistor_SMD:R_0402_1005Metric" H 2300 5150 50  0001 C CNN
F 3 "~" H 2300 5150 50  0001 C CNN
	1    2300 5150
	1    0    0    -1  
$EndComp
$Comp
L Device:R_Small R17
U 1 1 60B2E569
P 2300 6150
F 0 "R17" H 2359 6196 50  0000 L CNN
F 1 "1k" H 2359 6105 50  0000 L CNN
F 2 "Resistor_SMD:R_0402_1005Metric" H 2300 6150 50  0001 C CNN
F 3 "~" H 2300 6150 50  0001 C CNN
	1    2300 6150
	1    0    0    -1  
$EndComp
$Comp
L Device:R_Small R19
U 1 1 60B2E8BB
P 2300 6650
F 0 "R19" H 2359 6696 50  0000 L CNN
F 1 "1k" H 2359 6605 50  0000 L CNN
F 2 "Resistor_SMD:R_0402_1005Metric" H 2300 6650 50  0001 C CNN
F 3 "~" H 2300 6650 50  0001 C CNN
	1    2300 6650
	1    0    0    -1  
$EndComp
$Comp
L Device:R_Small R21
U 1 1 60B2EAA9
P 2300 7150
F 0 "R21" H 2359 7196 50  0000 L CNN
F 1 "20k" H 2359 7105 50  0000 L CNN
F 2 "Resistor_SMD:R_01005_0402Metric_Pad0.57x0.30mm_HandSolder" H 2300 7150 50  0001 C CNN
F 3 "~" H 2300 7150 50  0001 C CNN
	1    2300 7150
	1    0    0    -1  
$EndComp
Wire Wire Line
	2300 7050 2300 6900
Wire Wire Line
	2300 6550 2300 6400
Wire Wire Line
	2300 6050 2300 5900
Wire Wire Line
	2300 5550 2300 5400
$Comp
L power:-BATT #PWR026
U 1 1 60B43F4A
P 2300 7450
F 0 "#PWR026" H 2300 7300 50  0001 C CNN
F 1 "-BATT" H 2315 7623 50  0000 C CNN
F 2 "" H 2300 7450 50  0001 C CNN
F 3 "" H 2300 7450 50  0001 C CNN
	1    2300 7450
	-1   0    0    1   
$EndComp
Wire Wire Line
	2300 7450 2300 7250
Wire Wire Line
	2300 6900 3250 6900
Connection ~ 2300 6900
Wire Wire Line
	2300 6900 2300 6750
Wire Wire Line
	3250 6400 2300 6400
Connection ~ 2300 6400
Wire Wire Line
	2300 6400 2300 6250
Wire Wire Line
	2300 5900 3250 5900
Connection ~ 2300 5900
Wire Wire Line
	2300 5900 2300 5750
Wire Wire Line
	3250 5400 2300 5400
Connection ~ 2300 5400
Wire Wire Line
	2300 5400 2300 5250
Wire Wire Line
	4500 5300 4400 5300
Wire Wire Line
	4700 5300 4800 5300
Wire Wire Line
	4800 5300 4800 4500
Wire Wire Line
	4800 4500 3650 4500
Connection ~ 3650 4500
$Comp
L Device:R_Small R16
U 1 1 60B684F9
P 4600 5800
F 0 "R16" V 4404 5800 50  0000 C CNN
F 1 "200R" V 4495 5800 50  0000 C CNN
F 2 "Resistor_SMD:R_0402_1005Metric" H 4600 5800 50  0001 C CNN
F 3 "~" H 4600 5800 50  0001 C CNN
	1    4600 5800
	0    1    1    0   
$EndComp
Wire Wire Line
	4500 5800 4400 5800
Wire Wire Line
	4700 5800 4800 5800
$Comp
L Device:R_Small R18
U 1 1 60B6DA60
P 4600 6300
F 0 "R18" V 4404 6300 50  0000 C CNN
F 1 "200R" V 4495 6300 50  0000 C CNN
F 2 "Resistor_SMD:R_0402_1005Metric" H 4600 6300 50  0001 C CNN
F 3 "~" H 4600 6300 50  0001 C CNN
	1    4600 6300
	0    1    1    0   
$EndComp
Wire Wire Line
	4500 6300 4400 6300
Wire Wire Line
	4700 6300 4800 6300
$Comp
L Device:R_Small R20
U 1 1 60B731CE
P 4600 6800
F 0 "R20" V 4404 6800 50  0000 C CNN
F 1 "200R" V 4495 6800 50  0000 C CNN
F 2 "Resistor_SMD:R_0402_1005Metric" H 4600 6800 50  0001 C CNN
F 3 "~" H 4600 6800 50  0001 C CNN
	1    4600 6800
	0    1    1    0   
$EndComp
Wire Wire Line
	4500 6800 4400 6800
Wire Wire Line
	4700 6800 4800 6800
Connection ~ 4800 5300
Wire Wire Line
	4800 5800 4800 5300
Connection ~ 4800 5800
Wire Wire Line
	4800 6800 4800 6300
Wire Wire Line
	4800 6300 4800 5800
Connection ~ 4800 6300
Wire Wire Line
	1800 4500 2800 4500
Wire Wire Line
	2300 5050 2300 4900
Wire Wire Line
	2300 4900 1800 4900
Connection ~ 1800 4900
Wire Wire Line
	1800 4900 1800 4750
Text Notes 3050 4050 0    118  ~ 0
Battery Level Indicator
$Comp
L Device:R_Small R14
U 1 1 60B5CB8F
P 4600 5300
F 0 "R14" V 4404 5300 50  0000 C CNN
F 1 "200R" V 4495 5300 50  0000 C CNN
F 2 "Resistor_SMD:R_0402_1005Metric" H 4600 5300 50  0001 C CNN
F 3 "~" H 4600 5300 50  0001 C CNN
	1    4600 5300
	0    1    1    0   
$EndComp
$Comp
L Device:LED_Small D2
U 1 1 60AB4667
P 5800 1550
F 0 "D2" V 5846 1480 50  0000 R CNN
F 1 "green" V 5755 1480 50  0000 R CNN
F 2 "LED_SMD:LED_0603_1608Metric" V 5800 1550 50  0001 C CNN
F 3 "~" V 5800 1550 50  0001 C CNN
	1    5800 1550
	0    -1   -1   0   
$EndComp
$Comp
L Device:R_Small R2
U 1 1 60AB01CC
P 3500 1350
F 0 "R2" V 3304 1350 50  0000 C CNN
F 1 "20k" V 3395 1350 50  0000 C CNN
F 2 "Resistor_SMD:R_0402_1005Metric" H 3500 1350 50  0001 C CNN
F 3 "~" H 3500 1350 50  0001 C CNN
	1    3500 1350
	0    1    1    0   
$EndComp
$Comp
L Device:R_Small R23
U 1 1 60C62891
P 7200 4750
F 0 "R23" H 7259 4796 50  0000 L CNN
F 1 "0R" H 7259 4705 50  0000 L CNN
F 2 "Resistor_SMD:R_0402_1005Metric" H 7200 4750 50  0001 C CNN
F 3 "~" H 7200 4750 50  0001 C CNN
	1    7200 4750
	1    0    0    -1  
$EndComp
Wire Wire Line
	7200 4650 7200 4550
Wire Wire Line
	7200 4850 7200 4950
$EndSCHEMATC
